# Table Sx. Summary statistics of newly recorded bird species in China by order

- Total newly recorded bird species: 580
- Total papers: 785
- Orders included: 23

# A tibble: 24 × 5
   Order        Number of newly reco…¹ `Number of papers` Proportion of newly …²
   <chr>                         <int>              <int> <chr>                 
 1 Passeriform…                    317                391 54.7%                 
 2 Charadriifo…                     72                130 12.4%                 
 3 Anseriformes                     32                 66 5.5%                  
 4 Accipitrifo…                     29                 62 5.0%                  
 5 Pelecanifor…                     22                 44 3.8%                  
 6 Gruiformes                       17                 33 2.9%                  
 7 Columbiform…                     11                 18 1.9%                  
 8 Strigiformes                     11                 18 1.9%                  
 9 Galliformes                      11                 13 1.9%                  
10 Coraciiform…                      9                 16 1.6%                  
# ℹ 14 more rows
# ℹ abbreviated names: ¹​`Number of newly recorded bird species`,
#   ²​`Proportion of newly recorded bird species`
# ℹ 1 more variable:
#   `Proportion of newly recorded bird species to total species in the order` <chr>
